{"tracks": {"href": "https://api.spotify.com/v1/search?query=Gagana+Nee&type=track&market=IN&offset=0&limit=5", "items": [{"album": {"album_type": "single", "artists": [{"external_urls": {"spotify": "https://open.spotify.com/artist/4iuB0dl4ppOzsTJoUo19vc"}, "href": "https://api.spotify.com/v1/artists/4iuB0dl4ppOzsTJoUo19vc", "id": "4iuB0dl4ppOzsTJoUo19vc", "name": "Suchetha Basrur", "type": "artist", "uri": "spotify:artist:4iuB0dl4ppOzsTJoUo19vc"}, {"external_urls": {"spotify": "https://open.spotify.com/artist/2q1LRGJHpFxovU8Tz6OgRn"}, "href": "https://api.spotify.com/v1/artists/2q1LRGJHpFxovU8Tz6OgRn", "id": "2q1LRGJHpFxovU8Tz6OgRn", "name": "Ravi Basrur", "type": "artist", "uri": "spotify:artist:2q1LRGJHpFxovU8Tz6OgRn"}], "external_urls": {"spotify": "https://open.spotify.com/album/2xpBbCZkKhulZsyfi7JKw3"}, "href": "https://api.spotify.com/v1/albums/2xpBbCZkKhulZsyfi7JKw3", "id": "2xpBbCZkKhulZsyfi7JKw3", "images": [{"height": 640, "url": "https://i.scdn.co/image/ab67616d0000b27346c060f2c1c1ee6d06a08d04", "width": 640}, {"height": 300, "url": "https://i.scdn.co/image/ab67616d00001e0246c060f2c1c1ee6d06a08d04", "width": 300}, {"height": 64, "url": "https://i.scdn.co/image/ab67616d0000485146c060f2c1c1ee6d06a08d04", "width": 64}], "name": "Gagana Nee (From \"Kgf Chapter 2\")", "release_date": "2022-04-06", "release_date_precision": "day", "total_tracks": 1, "type": "album", "uri": "spotify:album:2xpBbCZkKhulZsyfi7JKw3"}, "artists": [{"external_urls": {"spotify": "https://open.spotify.com/artist/4iuB0dl4ppOzsTJoUo19vc"}, "href": "https://api.spotify.com/v1/artists/4iuB0dl4ppOzsTJoUo19vc", "id": "4iuB0dl4ppOzsTJoUo19vc", "name": "Suchetha Basrur", "type": "artist", "uri": "spotify:artist:4iuB0dl4ppOzsTJoUo19vc"}, {"external_urls": {"spotify": "https://open.spotify.com/artist/2q1LRGJHpFxovU8Tz6OgRn"}, "href": "https://api.spotify.com/v1/artists/2q1LRGJHpFxovU8Tz6OgRn", "id": "2q1LRGJHpFxovU8Tz6OgRn", "name": "Ravi Basrur", "type": "artist", "uri": "spotify:artist:2q1LRGJHpFxovU8Tz6OgRn"}], "disc_number": 1, "duration_ms": 171111, "explicit": false, "external_ids": {"isrc": "INS182200741"}, "external_urls": {"spotify": "https://open.spotify.com/track/1JSDCSUBqQzNEZ3A9YilSJ"}, "href": "https://api.spotify.com/v1/tracks/1JSDCSUBqQzNEZ3A9YilSJ", "id": "1JSDCSUBqQzNEZ3A9YilSJ", "is_local": false, "is_playable": true, "name": "Gagana Nee (From \"Kgf Chapter 2\")", "popularity": 51, "preview_url": "https://p.scdn.co/mp3-preview/b808efa0c4100287a5baebb4b017e9729e1aa107?cid=17a02e14ae594f5a97d77cabe7c2ee3a", "track_number": 1, "type": "track", "uri": "spotify:track:1JSDCSUBqQzNEZ3A9YilSJ"}, {"album": {"album_type": "single", "artists": [{"external_urls": {"spotify": "https://open.spotify.com/artist/2q1LRGJHpFxovU8Tz6OgRn"}, "href": "https://api.spotify.com/v1/artists/2q1LRGJHpFxovU8Tz6OgRn", "id": "2q1LRGJHpFxovU8Tz6OgRn", "name": "Ravi Basrur", "type": "artist", "uri": "spotify:artist:2q1LRGJHpFxovU8Tz6OgRn"}], "external_urls": {"spotify": "https://open.spotify.com/album/61o7rl6Tsa8CIYCcmIdVS2"}, "href": "https://api.spotify.com/v1/albums/61o7rl6Tsa8CIYCcmIdVS2", "id": "61o7rl6Tsa8CIYCcmIdVS2", "images": [{"height": 640, "url": "https://i.scdn.co/image/ab67616d0000b27333109b0d819c75540baacec7", "width": 640}, {"height": 300, "url": "https://i.scdn.co/image/ab67616d00001e0233109b0d819c75540baacec7", "width": 300}, {"height": 64, "url": "https://i.scdn.co/image/ab67616d0000485133109b0d819c75540baacec7", "width": 64}], "name": "Kgf Chapter 2", "release_date": "2022-04-14", "release_date_precision": "day", "total_tracks": 4, "type": "album", "uri": "spotify:album:61o7rl6Tsa8CIYCcmIdVS2"}, "artists": [{"external_urls": {"spotify": "https://open.spotify.com/artist/4iuB0dl4ppOzsTJoUo19vc"}, "href": "https://api.spotify.com/v1/artists/4iuB0dl4ppOzsTJoUo19vc", "id": "4iuB0dl4ppOzsTJoUo19vc", "name": "Suchetha Basrur", "type": "artist", "uri": "spotify:artist:4iuB0dl4ppOzsTJoUo19vc"}], "disc_number": 1, "duration_ms": 171111, "explicit": false, "external_ids": {"isrc": "INS182200741"}, "external_urls": {"spotify": "https://open.spotify.com/track/5QcULNjvB1DkbMWxVYpOlo"}, "href": "https://api.spotify.com/v1/tracks/5QcULNjvB1DkbMWxVYpOlo", "id": "5QcULNjvB1DkbMWxVYpOlo", "is_local": false, "is_playable": true, "name": "Gagana Nee", "popularity": 37, "preview_url": "https://p.scdn.co/mp3-preview/b808efa0c4100287a5baebb4b017e9729e1aa107?cid=17a02e14ae594f5a97d77cabe7c2ee3a", "track_number": 2, "type": "track", "uri": "spotify:track:5QcULNjvB1DkbMWxVYpOlo"}, {"album": {"album_type": "single", "artists": [{"external_urls": {"spotify": "https://open.spotify.com/artist/4W9ojTXn6xoSFsStc6rLiK"}, "href": "https://api.spotify.com/v1/artists/4W9ojTXn6xoSFsStc6rLiK", "id": "4W9ojTXn6xoSFsStc6rLiK", "name": "Anna Baby", "type": "artist", "uri": "spotify:artist:4W9ojTXn6xoSFsStc6rLiK"}, {"external_urls": {"spotify": "https://open.spotify.com/artist/2q1LRGJHpFxovU8Tz6OgRn"}, "href": "https://api.spotify.com/v1/artists/2q1LRGJHpFxovU8Tz6OgRn", "id": "2q1LRGJHpFxovU8Tz6OgRn", "name": "Ravi Basrur", "type": "artist", "uri": "spotify:artist:2q1LRGJHpFxovU8Tz6OgRn"}], "external_urls": {"spotify": "https://open.spotify.com/album/4Iq6phppSUuFTRRlhTRj3A"}, "href": "https://api.spotify.com/v1/albums/4Iq6phppSUuFTRRlhTRj3A", "id": "4Iq6phppSUuFTRRlhTRj3A", "images": [{"height": 640, "url": "https://i.scdn.co/image/ab67616d0000b27360959c9f61fb4e574293f719", "width": 640}, {"height": 300, "url": "https://i.scdn.co/image/ab67616d00001e0260959c9f61fb4e574293f719", "width": 300}, {"height": 64, "url": "https://i.scdn.co/image/ab67616d0000485160959c9f61fb4e574293f719", "width": 64}], "name": "Gaganam Nee (From \"Kgf Chapter 2\")", "release_date": "2022-04-06", "release_date_precision": "day", "total_tracks": 1, "type": "album", "uri": "spotify:album:4Iq6phppSUuFTRRlhTRj3A"}, "artists": [{"external_urls": {"spotify": "https://open.spotify.com/artist/4W9ojTXn6xoSFsStc6rLiK"}, "href": "https://api.spotify.com/v1/artists/4W9ojTXn6xoSFsStc6rLiK", "id": "4W9ojTXn6xoSFsStc6rLiK", "name": "Anna Baby", "type": "artist", "uri": "spotify:artist:4W9ojTXn6xoSFsStc6rLiK"}, {"external_urls": {"spotify": "https://open.spotify.com/artist/2q1LRGJHpFxovU8Tz6OgRn"}, "href": "https://api.spotify.com/v1/artists/2q1LRGJHpFxovU8Tz6OgRn", "id": "2q1LRGJHpFxovU8Tz6OgRn", "name": "Ravi Basrur", "type": "artist", "uri": "spotify:artist:2q1LRGJHpFxovU8Tz6OgRn"}], "disc_number": 1, "duration_ms": 171069, "explicit": false, "external_ids": {"isrc": "INS182200742"}, "external_urls": {"spotify": "https://open.spotify.com/track/7nS2wI0uoakUjLfIIdMczB"}, "href": "https://api.spotify.com/v1/tracks/7nS2wI0uoakUjLfIIdMczB", "id": "7nS2wI0uoakUjLfIIdMczB", "is_local": false, "is_playable": true, "name": "Gaganam Nee (From \"Kgf Chapter 2\")", "popularity": 49, "preview_url": "https://p.scdn.co/mp3-preview/d3f13a1b198446cff8f57ccaf9ae1aa851634744?cid=17a02e14ae594f5a97d77cabe7c2ee3a", "track_number": 1, "type": "track", "uri": "spotify:track:7nS2wI0uoakUjLfIIdMczB"}, {"album": {"album_type": "compilation", "artists": [{"external_urls": {"spotify": "https://open.spotify.com/artist/0LyfQWJT6nXafLPZqxe9Of"}, "href": "https://api.spotify.com/v1/artists/0LyfQWJT6nXafLPZqxe9Of", "id": "0LyfQWJT6nXafLPZqxe9Of", "name": "Various Artists", "type": "artist", "uri": "spotify:artist:0LyfQWJT6nXafLPZqxe9Of"}], "external_urls": {"spotify": "https://open.spotify.com/album/3NnJEHvDg5aV4qzHAckcPt"}, "href": "https://api.spotify.com/v1/albums/3NnJEHvDg5aV4qzHAckcPt", "id": "3NnJEHvDg5aV4qzHAckcPt", "images": [{"height": 640, "url": "https://i.scdn.co/image/ab67616d0000b2739f69e617e9fe4b68664815ea", "width": 640}, {"height": 300, "url": "https://i.scdn.co/image/ab67616d00001e029f69e617e9fe4b68664815ea", "width": 300}, {"height": 64, "url": "https://i.scdn.co/image/ab67616d000048519f69e617e9fe4b68664815ea", "width": 64}], "name": "Sad Songs - Punjabi", "release_date": "2019-06-15", "release_date_precision": "day", "total_tracks": 15, "type": "album", "uri": "spotify:album:3NnJEHvDg5aV4qzHAckcPt"}, "artists": [{"external_urls": {"spotify": "https://open.spotify.com/artist/2ECA51juFyrh4DAuc8FucP"}, "href": "https://api.spotify.com/v1/artists/2ECA51juFyrh4DAuc8FucP", "id": "2ECA51juFyrh4DAuc8FucP", "name": "Gagan Kokri", "type": "artist", "uri": "spotify:artist:2ECA51juFyrh4DAuc8FucP"}, {"external_urls": {"spotify": "https://open.spotify.com/artist/4pQXtUY6y5FYuvuDZtxgSC"}, "href": "https://api.spotify.com/v1/artists/4pQXtUY6y5FYuvuDZtxgSC", "id": "4pQXtUY6y5FYuvuDZtxgSC", "name": "Ginni Kapoor", "type": "artist", "uri": "spotify:artist:4pQXtUY6y5FYuvuDZtxgSC"}], "disc_number": 1, "duration_ms": 208702, "explicit": false, "external_ids": {"isrc": "INS921901633"}, "external_urls": {"spotify": "https://open.spotify.com/track/40x1w2PIASnVJQrZVDhwvP"}, "href": "https://api.spotify.com/v1/tracks/40x1w2PIASnVJQrZVDhwvP", "id": "40x1w2PIASnVJQrZVDhwvP", "is_local": false, "is_playable": true, "name": "Neend Diya Goliyan", "popularity": 22, "preview_url": "https://p.scdn.co/mp3-preview/e7894d64b18e17a7683982b2aabbc40351179f30?cid=17a02e14ae594f5a97d77cabe7c2ee3a", "track_number": 7, "type": "track", "uri": "spotify:track:40x1w2PIASnVJQrZVDhwvP"}, {"album": {"album_type": "single", "artists": [{"external_urls": {"spotify": "https://open.spotify.com/artist/2q1LRGJHpFxovU8Tz6OgRn"}, "href": "https://api.spotify.com/v1/artists/2q1LRGJHpFxovU8Tz6OgRn", "id": "2q1LRGJHpFxovU8Tz6OgRn", "name": "Ravi Basrur", "type": "artist", "uri": "spotify:artist:2q1LRGJHpFxovU8Tz6OgRn"}], "external_urls": {"spotify": "https://open.spotify.com/album/6nmEkCuRxNz0SvM34IgVIh"}, "href": "https://api.spotify.com/v1/albums/6nmEkCuRxNz0SvM34IgVIh", "id": "6nmEkCuRxNz0SvM34IgVIh", "images": [{"height": 640, "url": "https://i.scdn.co/image/ab67616d0000b273986ce394134b0b306d50b657", "width": 640}, {"height": 300, "url": "https://i.scdn.co/image/ab67616d00001e02986ce394134b0b306d50b657", "width": 300}, {"height": 64, "url": "https://i.scdn.co/image/ab67616d00004851986ce394134b0b306d50b657", "width": 64}], "name": "Kgf Chapter 2", "release_date": "2022-04-14", "release_date_precision": "day", "total_tracks": 4, "type": "album", "uri": "spotify:album:6nmEkCuRxNz0SvM34IgVIh"}, "artists": [{"external_urls": {"spotify": "https://open.spotify.com/artist/4W9ojTXn6xoSFsStc6rLiK"}, "href": "https://api.spotify.com/v1/artists/4W9ojTXn6xoSFsStc6rLiK", "id": "4W9ojTXn6xoSFsStc6rLiK", "name": "Anna Baby", "type": "artist", "uri": "spotify:artist:4W9ojTXn6xoSFsStc6rLiK"}], "disc_number": 1, "duration_ms": 171069, "explicit": false, "external_ids": {"isrc": "INS182200742"}, "external_urls": {"spotify": "https://open.spotify.com/track/1b82ZUAgPKKJ2SksZdaoWX"}, "href": "https://api.spotify.com/v1/tracks/1b82ZUAgPKKJ2SksZdaoWX", "id": "1b82ZUAgPKKJ2SksZdaoWX", "is_local": false, "is_playable": true, "name": "Gaganam Nee", "popularity": 35, "preview_url": "https://p.scdn.co/mp3-preview/d3f13a1b198446cff8f57ccaf9ae1aa851634744?cid=17a02e14ae594f5a97d77cabe7c2ee3a", "track_number": 2, "type": "track", "uri": "spotify:track:1b82ZUAgPKKJ2SksZdaoWX"}], "limit": 5, "next": "https://api.spotify.com/v1/search?query=Gagana+Nee&type=track&market=IN&offset=5&limit=5", "offset": 0, "previous": null, "total": 260}}